[
    {
        "title": "Blog",
        "children": [
            {
                "title": "Data kwaliteit, een voorbeeld",
                "link": "/blog/voorbeeld"
            }
        ]
    }
]