[
  {
    "title": "Over CommonDataFactory",
    "children": [
      {
        "title": "Introductie",
        "link": "/over"
      },
      {
        "title": "Meedoen & Feedback",
        "link": "/over/meetings"
      },
      {
        "title": "Architectuur",
        "link": "/over/architectuur"
      }
    ]
  },
  {
    "title": "Geschiedenis",
    "children": [
      {
        "title": "Plaatjes uit het verleden.",
        "link": "/over/history"
      }
    ]
  }
]
